{
	"count": 13,
	"next": "http://swapi.dev/api/people/?search=c&page=2",
	"previous": null,
	"results": [
		{
			"name": "Darth Vader",
			"height": "202",
			"mass": "136",
			"hair_color": "none",
			"skin_color": "white",
			"eye_color": "yellow",
			"birth_year": "41.9BBY",
			"gender": "male",
			"homeworld": "http://swapi.dev/api/planets/1/",
			"films": [
				"http://swapi.dev/api/films/1/",
				"http://swapi.dev/api/films/2/",
				"http://swapi.dev/api/films/3/",
				"http://swapi.dev/api/films/6/"
			],
			"species": [],
			"vehicles": [],
			"starships": ["http://swapi.dev/api/starships/13/"],
			"created": "2014-12-10T15:18:20.704000Z",
			"edited": "2014-12-20T21:17:50.313000Z",
			"url": "http://swapi.dev/api/people/4/"
		},
		{
			"name": "Beru Whitesun lars",
			"height": "165",
			"mass": "75",
			"hair_color": "brown",
			"skin_color": "light",
			"eye_color": "blue",
			"birth_year": "47BBY",
			"gender": "female",
			"homeworld": "http://swapi.dev/api/planets/1/",
			"films": [
				"http://swapi.dev/api/films/1/",
				"http://swapi.dev/api/films/5/",
				"http://swapi.dev/api/films/6/"
			],
			"species": [],
			"vehicles": [],
			"starships": [],
			"created": "2014-12-10T15:53:41.121000Z",
			"edited": "2014-12-20T21:17:50.319000Z",
			"url": "http://swapi.dev/api/people/7/"
		},
		{
			"name": "Biggs Darklighter",
			"height": "183",
			"mass": "84",
			"hair_color": "black",
			"skin_color": "light",
			"eye_color": "brown",
			"birth_year": "24BBY",
			"gender": "male",
			"homeworld": "http://swapi.dev/api/planets/1/",
			"films": ["http://swapi.dev/api/films/1/"],
			"species": [],
			"vehicles": [],
			"starships": ["http://swapi.dev/api/starships/12/"],
			"created": "2014-12-10T15:59:50.509000Z",
			"edited": "2014-12-20T21:17:50.323000Z",
			"url": "http://swapi.dev/api/people/9/"
		},
		{
			"name": "Wilhuff Tarkin",
			"height": "180",
			"mass": "unknown",
			"hair_color": "auburn, grey",
			"skin_color": "fair",
			"eye_color": "blue",
			"birth_year": "64BBY",
			"gender": "male",
			"homeworld": "http://swapi.dev/api/planets/21/",
			"films": [
				"http://swapi.dev/api/films/1/",
				"http://swapi.dev/api/films/6/"
			],
			"species": [],
			"vehicles": [],
			"starships": [],
			"created": "2014-12-10T16:26:56.138000Z",
			"edited": "2014-12-20T21:17:50.330000Z",
			"url": "http://swapi.dev/api/people/12/"
		},
		{
			"name": "Jabba Desilijic Tiure",
			"height": "175",
			"mass": "1,358",
			"hair_color": "n/a",
			"skin_color": "green-tan, brown",
			"eye_color": "orange",
			"birth_year": "600BBY",
			"gender": "hermaphrodite",
			"homeworld": "http://swapi.dev/api/planets/24/",
			"films": [
				"http://swapi.dev/api/films/1/",
				"http://swapi.dev/api/films/3/",
				"http://swapi.dev/api/films/4/"
			],
			"species": ["http://swapi.dev/api/species/5/"],
			"vehicles": [],
			"starships": [],
			"created": "2014-12-10T17:11:31.638000Z",
			"edited": "2014-12-20T21:17:50.338000Z",
			"url": "http://swapi.dev/api/people/16/"
		},
		{
			"name": "Wedge Antilles",
			"height": "170",
			"mass": "77",
			"hair_color": "brown",
			"skin_color": "fair",
			"eye_color": "hazel",
			"birth_year": "21BBY",
			"gender": "male",
			"homeworld": "http://swapi.dev/api/planets/22/",
			"films": [
				"http://swapi.dev/api/films/1/",
				"http://swapi.dev/api/films/2/",
				"http://swapi.dev/api/films/3/"
			],
			"species": [],
			"vehicles": ["http://swapi.dev/api/vehicles/14/"],
			"starships": ["http://swapi.dev/api/starships/12/"],
			"created": "2014-12-12T11:08:06.469000Z",
			"edited": "2014-12-20T21:17:50.341000Z",
			"url": "http://swapi.dev/api/people/18/"
		},
		{
			"name": "Jek Tono Porkins",
			"height": "180",
			"mass": "110",
			"hair_color": "brown",
			"skin_color": "fair",
			"eye_color": "blue",
			"birth_year": "unknown",
			"gender": "male",
			"homeworld": "http://swapi.dev/api/planets/26/",
			"films": ["http://swapi.dev/api/films/1/"],
			"species": [],
			"vehicles": [],
			"starships": ["http://swapi.dev/api/starships/12/"],
			"created": "2014-12-12T11:16:56.569000Z",
			"edited": "2014-12-20T21:17:50.343000Z",
			"url": "http://swapi.dev/api/people/19/"
		},
		{
			"name": "Palpatine",
			"height": "170",
			"mass": "75",
			"hair_color": "grey",
			"skin_color": "pale",
			"eye_color": "yellow",
			"birth_year": "82BBY",
			"gender": "male",
			"homeworld": "http://swapi.dev/api/planets/8/",
			"films": [
				"http://swapi.dev/api/films/2/",
				"http://swapi.dev/api/films/3/",
				"http://swapi.dev/api/films/4/",
				"http://swapi.dev/api/films/5/",
				"http://swapi.dev/api/films/6/"
			],
			"species": [],
			"vehicles": [],
			"starships": [],
			"created": "2014-12-15T12:48:05.971000Z",
			"edited": "2014-12-20T21:17:50.347000Z",
			"url": "http://swapi.dev/api/people/21/"
		},
		{
			"name": "Boba Fett",
			"height": "183",
			"mass": "78.2",
			"hair_color": "black",
			"skin_color": "fair",
			"eye_color": "brown",
			"birth_year": "31.5BBY",
			"gender": "male",
			"homeworld": "http://swapi.dev/api/planets/10/",
			"films": [
				"http://swapi.dev/api/films/2/",
				"http://swapi.dev/api/films/3/",
				"http://swapi.dev/api/films/5/"
			],
			"species": [],
			"vehicles": [],
			"starships": ["http://swapi.dev/api/starships/21/"],
			"created": "2014-12-15T12:49:32.457000Z",
			"edited": "2014-12-20T21:17:50.349000Z",
			"url": "http://swapi.dev/api/people/22/"
		},
		{
			"name": "Lobot",
			"height": "175",
			"mass": "79",
			"hair_color": "none",
			"skin_color": "light",
			"eye_color": "blue",
			"birth_year": "37BBY",
			"gender": "male",
			"homeworld": "http://swapi.dev/api/planets/6/",
			"films": ["http://swapi.dev/api/films/2/"],
			"species": [],
			"vehicles": [],
			"starships": [],
			"created": "2014-12-15T13:01:57.178000Z",
			"edited": "2014-12-20T21:17:50.359000Z",
			"url": "http://swapi.dev/api/people/26/"
		}
	]
}
